ID;c1;c1d;c2;c2d;c3;c3d;c4;c4d;s1;s1d;s2;s2d;s3;s3d;s4;s4d;m1;m1d;m2;m2d;m3;m3d;m4;m4d;cw1;sw1;mw1;aw1;hw1;rw1;cw2;sw2;mw2;aw2;hw2;rw2;cw3;sw3;mw3;aw3;hw3;rw3;cw4;sw4;mw4;aw4;hw4;rw4;Risk
116;4,250;1,500;4,000;0,000;4,000;0,000;4,000;0,000;1,000;0,816;1,000;0,000;1,000;0,000;0,667;1,155;0,500;0,577;0,500;0,707;0,429;0,535;0,667;0,577;1;1;1;0;0;0;1;2;1;-1;1;0;4;1;1;1;0;0;2;0;0;0;0;0;0
117;2,000;0,000;2,857;2,268;2,000;0,000;2,000;0,000;0,286;0,488;0,000;0,000;0,000;0,000;0,000;0,000;1,000;0,577;0,857;0,690;0,857;0,378;1,000;0,000;3;0;2;0;0;0;3;1;2;1;0;1;4;1;2;0;0;0;4;1;2;0;0;0;0
118;4,800;2,775;5,000;2,449;5,000;2,530;4,000;1,915;0,800;0,837;0,286;0,488;0,500;0,548;0,000;0,000;0,400;0,894;0,714;0,488;0,833;0,753;0,857;0,690;3;0;1;0;2;1;3;1;0;0;0;1;4;0;2;1;1;0;3;0;0;0;1;0;0
119;3,000;1,000;5,143;2,734;3,143;1,215;2,000;0,816;0,571;0,535;1,286;0,756;1,000;0,816;1,000;0,000;1,000;0,000;0,571;0,535;0,571;0,535;0,429;0,535;3;2;1;0;0;1;4;4;0;2;0;1;4;3;2;-1;0;0;4;3;2;1;0;0;2
120;2,714;2,059;2,429;1,272;1,571;1,272;1,500;1,517;0,857;0,900;0,429;0,535;0,286;0,756;0,167;0,408;0,571;0,976;1,143;0,690;1,286;0,488;1,667;0,516;3;1;1;-1;-1;1;3;1;1;3;2;1;3;1;2;-1;0;1;3;3;2;-1;0;1;1
121;3,571;1,272;3,167;0,408;3,571;0,535;4,167;1,472;0,714;0,488;0,167;0,408;0,571;0,787;0,333;0,816;1,429;0,535;1,500;0,548;1,286;0,488;0,833;0,408;3;0;1;1;1;1;2;0;1;0;1;0;3;1;2;2;0;0;2;0;1;-2;0;0;0
123;4,286;0,951;3,429;1,988;2,000;1,155;2,750;0,957;0,714;0,488;0,143;0,378;0,143;0,378;0,000;0,000;1,143;0,378;1,714;0,756;1,714;0,488;2,000;0,000;3;1;1;2;1;1;3;0;1;-1;0;0;4;0;2;-2;0;0;4;0;1;1;1;0;1
124;2,429;1,134;2,000;0,000;2,000;0,000;2,200;0,447;0,286;0,488;0,429;0,535;0,286;0,756;2,200;2,049;0,714;0,951;1,143;0,378;0,857;0,378;-0,600;1,140;4;1;1;0;0;1;4;0;1;0;0;0;4;0;1;0;0;0;4;3;-1;-1;0;3;2
126;3,000;2,449;0,000;0,000;1,500;0,577;0,571;0,787;2,250;0,957;0,500;0,707;0,500;0,577;0,714;1,113;0,750;0,500;1,000;0,000;1,000;0,000;0,857;0,378;3;1;2;2;1;0;2;1;2;2;0;0;3;0;2;0;1;0;3;0;1;-1;0;0;0
127;3,333;2,251;3,000;1,291;4,714;1,113;4,000;0,000;0,833;0,753;0,143;0,378;0,857;0,690;0,286;0,488;1,000;0,632;1,143;0,378;0,714;0,756;0,286;0,488;3;1;2;2;2;0;2;0;2;1;2;0;2;2;2;-1;-1;0;3;1;1;-2;0;0;0
129;3,571;2,507;0,714;1,254;0,000;0,000;0,714;1,254;0,857;1,215;0,143;0,378;0,286;0,488;0,143;0,378;1,143;0,378;1,286;0,488;1,714;0,488;1,143;1,215;4;1;2;1;1;0;4;0;1;0;0;0;4;1;1;0;-1;1;4;0;1;-1;0;1;0
130;2,286;0,951;2,000;0,000;0,143;0,378;0,000;0,000;1,143;0,378;1,000;0,000;1,143;0,378;1,000;0,000;1,286;0,488;1,000;0,000;1,000;0,000;1,000;0,000;3;1;1;2;1;1;3;0;0;2;0;2;3;0;2;2;0;1;3;1;1;0;0;1;1
131;0,200;0,447;0,000;0,000;0,167;0,408;0,000;0,000;0,000;0,000;0,000;0,000;0,000;0,000;0,000;0,000;1,200;0,447;1,000;0,000;1,000;0,000;1,286;0,488;3;1;1;2;1;0;2;2;0;0;0;1;3;0;2;0;0;0;3;0;1;0;0;0;0
166;4,714;1,799;4,000;1,414;4,000;0,577;4,200;0,447;1,286;0,756;1,200;0,447;1,429;0,535;1,400;0,548;1,000;0,000;1,000;0,000;1,000;0,000;1,000;0,000;0;4;1;0;0;1;1;4;1;0;0;1;1;4;1;0;0;0;0;4;1;0;0;0;1
169;7,286;0,488;8,400;1,140;6,857;0,378;6,200;0,837;0,429;0,535;1,200;1,789;0,429;0,535;0,000;0,000;0,143;0,378;-0,400;1,140;0,143;0,378;0,400;0,548;1;2;1;1;0;1;1;3;1;1;-1;2;2;3;1;0;0;2;1;3;1;1;0;0;1
170;1,857;1,952;0,143;0,378;0,000;0,000;0,000;0,000;0,714;0,488;0,429;0,535;0,714;0,488;1,000;0,000;0,571;0,787;1,714;0,488;1,429;0,787;1,333;0,577;1;3;1;0;-1;1;2;3;0;1;-1;2;2;3;1;1;-1;1;1;3;0;-1;-1;2;1
171;4,333;0,816;4,250;0,500;5,250;0,500;6,000;0,000;0,333;0,516;0,000;0,000;0,000;0,000;0,000;0,000;0,500;0,837;1,250;0,500;1,500;0,577;0,667;0,577;1;4;0;0;0;1;1;4;1;1;1;0;0;4;1;-1;1;0;0;4;0;0;0;0;1
173;4,667;3,670;2,571;1,272;6,200;5,762;5,600;4,099;0,667;1,211;0,286;0,488;2,000;1,414;1,600;1,817;0,500;1,225;1,429;0,535;0,600;1,673;0,600;1,673;2;1;0;0;0;1;0;3;1;1;1;0;2;2;1;0;0;2;2;1;-1;0;-1;3;2
174;5,857;2,268;6,500;1,732;2,833;1,329;1,167;0,753;1,857;1,215;2,000;1,414;0,833;0,408;1,167;0,408;0,143;0,900;0,500;0,577;0,667;0,516;0,500;0,548;1;3;1;0;0;0;1;2;1;0;0;1;1;2;0;0;0;1;1;2;1;0;0;1;2
176;6,000;1,915;4,429;1,988;4,571;1,988;6,571;1,718;0,143;0,378;0,714;0,488;0,286;0,488;0,286;0,488;0,714;0,488;0,571;0,535;0,429;0,787;0,143;0,378;0;2;1;0;0;0;0;3;1;-1;-1;1;2;1;-1;1;-1;3;1;1;1;0;-3;0;1
177;2,000;0,000;2,714;0,951;2,143;0,378;2,000;0,000;1,000;0,000;0,429;0,535;0,286;0,488;0,333;0,577;1,000;0,000;0,857;0,378;1,000;0,000;1,000;0,000;1;4;1;-1;0;1;0;4;2;1;0;0;0;4;2;1;1;0;1;4;2;1;1;0;0
179;5,400;1,342;6,000;1,897;6,000;0,000;6,000;0,000;0,600;0,548;0,333;0,816;0,000;0,000;0,000;0,000;0,200;0,837;0,000;0,632;0,200;0,447;0,800;0,447;1;4;0;-1;0;0;2;4;-1;1;-1;2;0;4;2;2;2;0;0;4;2;-1;2;0;1
205;1,714;2,628;0,429;0,787;0,200;0,447;0,333;0,577;0,571;0,787;0,857;1,215;0,400;0,548;0,333;0,577;1,286;0,756;1,000;1,414;0,400;0,894;0,000;0,000;2;2;0;-1;0;1;1;2;1;1;0;0;1;2;-1;1;0;1;2;3;0;0;0;1;1
206;4,571;2,936;3,800;3,271;5,857;1,952;4,714;1,113;1,286;0,756;1,600;1,140;1,571;0,787;0,857;0,690;0,571;0,787;0,400;0,894;0,143;0,690;0,571;0,535;3;4;0;-2;0;2;1;4;2;-1;2;1;1;3;1;0;1;1;0;3;0;-2;-1;0;2
207;6,000;1,732;6,571;1,512;7,333;1,862;6,200;1,483;1,000;0,577;0,857;0,690;1,833;1,169;2,600;0,548;0,286;1,113;0,714;0,951;0,000;1,265;0,200;0,447;2;2;1;0;-1;1;1;2;1;-1;0;1;1;2;1;0;0;0;3;2;0;0;0;0;2
208;5,750;1,708;2,286;1,604;5,429;3,207;5,200;1,095;0,750;0,500;0,429;0,787;0,143;0,378;0,000;0,000;0,500;0,577;1,143;0,690;0,000;0,577;0,400;0,548;4;0;-2;0;-1;4;2;2;1;1;0;1;1;2;1;0;1;1;1;2;2;1;1;1;2
209;6,857;1,773;7,571;1,272;8,167;1,169;;;1,143;0,378;2,000;0,577;1,500;0,548;;;0,143;0,378;0,000;0,577;-0,167;0,753;;;3;2;-1;-2;-1;4;2;3;1;1;0;2;2;3;-1;0;0;2;0;0;0;0;0;0;2
210;5,429;1,272;6,286;1,113;6,000;1,291;7,000;1,414;0,143;0,378;0,000;0,000;0,286;0,488;0,000;0,000;0,429;0,535;0,714;0,488;0,571;0,535;0,000;0,000;1;2;1;-1;0;1;1;2;1;0;1;1;1;2;1;0;1;1;1;2;1;0;0;1;0
212;4,571;0,787;4,857;1,215;5,857;2,116;4,400;0,894;1,286;0,488;2,000;1,155;1,714;1,890;0,600;0,548;0,000;0,000;0,000;0,000;0,286;0,488;0,600;0,548;3;3;0;0;0;2;3;3;-1;-2;-1;3;1;3;1;1;1;2;0;3;1;1;1;1;2
213;1,833;1,722;1,143;1,069;2,000;1,414;1,200;1,304;0,000;0,000;0,143;0,378;0,000;0,000;0,000;0,000;0,833;0,753;1,143;0,690;1,000;0,577;1,400;0,548;2;3;0;0;0;2;2;2;0;-2;0;3;2;2;0;0;-1;1;1;2;1;0;0;2;1
214;2,571;1,272;1,714;0,756;2,000;0,000;2,000;0,000;0,000;0,000;0,000;0,000;0,000;0,000;0,000;0,000;1,000;0,816;0,429;0,535;0,714;0,756;0,400;0,548;1;3;1;0;1;1;0;3;0;-1;0;1;0;3;1;0;0;1;0;3;1;0;0;1;0
215;1,143;1,069;4,000;2,530;3,000;0,577;3,571;2,440;1,143;0,900;1,833;0,408;1,571;0,535;1,714;0,951;1,429;0,535;0,000;0,632;0,857;0,690;0,286;0,488;2;3;2;0;0;1;3;2;0;0;0;3;1;3;1;1;0;1;2;2;1;0;0;1;2
